module gotracingtest

go 1.18

require (
	github.com/opentracing/opentracing-go v1.2.0
	github.com/uber/jaeger-client-go v2.30.0+incompatible
)

require (
	github.com/HdrHistogram/hdrhistogram-go v1.1.2 // indirect
	github.com/pkg/errors v0.9.1 // indirect
	github.com/stretchr/testify v1.7.0 // indirect
	github.com/uber/jaeger-lib v2.4.1+incompatible // indirect
	go.uber.org/atomic v1.9.0 // indirect
)
